Dual_Port_True_Sync/dp_ram_true_tb.vcd
$date
	Mon Jun 29 16:19:37 2026
$end
$version
	Icarus Verilog
$end
$timescale
	1ps
$end
$scope module sram_dp_tb $end
$var wire 16 ! data_outB [15:0] $end
$var wire 16 " data_outA [15:0] $end
$var wire 1 # collision $end
$var parameter 32 $ DATA_WIDTH $end
$var parameter 32 % DEPTH $end
$var reg 8 & addr_A [7:0] $end
$var reg 8 ' addr_B [7:0] $end
$var reg 1 ( clk_A $end
$var reg 1 ) clk_B $end
$var reg 1 * cs $end
$var reg 16 + data_inA [15:0] $end
$var reg 16 , data_inB [15:0] $end
$var reg 1 - re_A $end
$var reg 1 . re_B $end
$var reg 1 / we_A $end
$var reg 1 0 we_B $end
$scope module DUT $end
$var wire 8 1 addr_A [7:0] $end
$var wire 8 2 addr_B [7:0] $end
$var wire 1 ( clk_A $end
$var wire 1 ) clk_B $end
$var wire 1 # collision $end
$var wire 1 * cs $end
$var wire 16 3 data_inA [15:0] $end
$var wire 16 4 data_inB [15:0] $end
$var wire 1 - re_A $end
$var wire 1 . re_B $end
$var wire 1 / we_A $end
$var wire 1 0 we_B $end
$var parameter 32 5 DATA_WIDTH $end
$var parameter 32 6 DEPTH $end
$var reg 16 7 data_outA [15:0] $end
$var reg 16 8 data_outB [15:0] $end
$upscope $end
$upscope $end
$enddefinitions $end
$comment Show the parameter values. $end
$dumpall
b100000000 6
b10000 5
b100000000 %
b10000 $
$end
#0
$dumpvars
bx 8
bx 7
b0 4
b0 3
b0 2
b0 1
00
0/
0.
0-
b0 ,
b0 +
1*
0)
0(
b0 '
b0 &
0#
bx "
bx !
$end
#5000
1(
#7000
1)
#10000
1/
b1010101010101010 +
b1010101010101010 3
b101 &
b101 1
0(
#14000
0)
#15000
1(
#20000
0/
0(
#21000
1)
#25000
1(
#28000
10
b1011101110111011 ,
b1011101110111011 4
b1010 '
b1010 2
0)
#30000
0(
#35000
1(
1)
#40000
0(
#42000
00
0)
#45000
1(
#49000
1)
#50000
1-
0(
#55000
b1010101010101010 "
b1010101010101010 7
1(
#56000
0)
#60000
0-
0(
#63000
1)
#65000
1(
#70000
1.
0(
0)
#75000
1(
#77000
b1011101110111011 !
b1011101110111011 8
1)
#80000
0(
#84000
0.
0)
#85000
1(
#90000
1/
b1001000110100 +
b1001000110100 3
b1111 &
b1111 1
0(
#91000
1)
#95000
1(
#98000
1.
b101 '
b101 2
0)
#100000
0/
0(
#105000
b1010101010101010 !
b1010101010101010 8
1(
1)
#110000
0(
#112000
0.
0)
#115000
1(
#119000
1)
#120000
1-
0(
#125000
b1001000110100 "
b1001000110100 7
1(
#126000
0)
#130000
0-
0(
#133000
1)
#135000
1(
#140000
1-
b101 &
b101 1
0(
0)
#145000
b1010101010101010 "
b1010101010101010 7
1(
#147000
1)
#150000
0(
#154000
1.
b1111 '
b1111 2
0)
#155000
1(
#160000
0-
0(
#161000
b1001000110100 !
b1001000110100 8
1)
#165000
1(
#168000
0.
0)
#170000
1/
b1010101010101010 +
b1010101010101010 3
b10100 &
b10100 1
0(
#175000
1(
1)
#180000
0/
0(
#182000
0)
#185000
1(
#189000
1)
#190000
1/
b1000100010001 +
b1000100010001 3
0(
#195000
1(
#196000
1#
10
b10001000100010 ,
b10001000100010 4
b10100 '
b10100 2
0)
#200000
0#
0/
0(
#203000
1)
#205000
1(
#210000
00
0(
0)
#215000
1(
#217000
1)
#220000
1-
0(
#224000
0)
#225000
b10001000100010 "
b10001000100010 7
1(
#230000
0-
0(
