Dual_Port_Pseudo_Sync/dp_ram_pseudo_tb.vcd
$date
	Mon Jun 29 16:17:37 2026
$end
$version
	Icarus Verilog
$end
$timescale
	1ps
$end
$scope module sram_pdp_tb $end
$var wire 16 ! data_outB [15:0] $end
$var parameter 32 " DATA_WIDTH $end
$var parameter 32 # DEPTH $end
$var reg 8 $ addr_A [7:0] $end
$var reg 8 % addr_B [7:0] $end
$var reg 1 & clk $end
$var reg 1 ' cs $end
$var reg 16 ( data_inA [15:0] $end
$var reg 1 ) re_B $end
$var reg 1 * we_A $end
$scope module DUT $end
$var wire 8 + addr_A [7:0] $end
$var wire 8 , addr_B [7:0] $end
$var wire 1 & clk $end
$var wire 1 ' cs $end
$var wire 16 - data_inA [15:0] $end
$var wire 1 ) re_B $end
$var wire 1 * we_A $end
$var parameter 32 . DATA_WIDTH $end
$var parameter 32 / DEPTH $end
$var reg 16 0 data_outB [15:0] $end
$upscope $end
$upscope $end
$enddefinitions $end
$comment Show the parameter values. $end
$dumpall
b100000000 /
b10000 .
b100000000 #
b10000 "
$end
#0
$dumpvars
bx 0
b0 -
b0 ,
b0 +
0*
0)
b0 (
1'
0&
b0 %
b0 $
bx !
$end
#5000
1&
#10000
1*
b1010101111001101 (
b1010101111001101 -
b1100 $
b1100 +
0&
#15000
1&
#20000
0*
0&
#25000
1&
#30000
1)
b1100 %
b1100 ,
0&
#35000
b1010101111001101 !
b1010101111001101 0
1&
#40000
0)
0&
#45000
1&
#50000
1*
b1001000110100 (
b1001000110100 -
b1100100 $
b1100100 +
0&
#55000
1&
#60000
0*
0&
#65000
1&
#70000
1)
b1100100 %
b1100100 ,
0&
#75000
b1001000110100 !
b1001000110100 0
1&
#80000
0)
0&
#85000
1&
#90000
1*
b101011001111000 (
b101011001111000 -
0&
#95000
1&
#100000
0*
0&
#105000
1&
#110000
1)
0&
#115000
b101011001111000 !
b101011001111000 0
1&
#120000
0)
0&
#125000
1&
#130000
1)
b1100 %
b1100 ,
0&
#135000
b1010101111001101 !
b1010101111001101 0
1&
#140000
0)
0&
#145000
1&
#150000
1)
1*
b1101111010101101 (
b1101111010101101 -
b110010 %
b110010 ,
b110010 $
b110010 +
0&
#155000
b1101111010101101 !
b1101111010101101 0
1&
#160000
0)
0*
0&
#165000
1&
#170000
1)
0&
#175000
1&
#180000
0)
0&
